<?xml version="1.0" encoding="utf-8"?>
<!-- Generator: Adobe Illustrator 17.1.0, SVG Export Plug-In . SVG Version: 6.00 Build 0)  -->
<!DOCTYPE svg PUBLIC "-//W3C//DTD SVG 1.1//EN" "http://www.w3.org/Graphics/SVG/1.1/DTD/svg11.dtd">
<svg version="1.1" id="Layer_1" xmlns="http://www.w3.org/2000/svg" xmlns:xlink="http://www.w3.org/1999/xlink" x="0px" y="0px"
	 viewBox="0 0 512 512" enable-background="new 0 0 512 512" xml:space="preserve">
<path id="linkedin-circle-icon" fill="#EC7B5D" d="M256.4,50c-113.8,0-206,92.2-206,206s92.2,206,206,206s206-92.2,206-206
	S370.2,50,256.4,50z M201.5,355.6h-45.2V209.5h45.2V355.6z M178.6,190.3c-14.8,0-26.7-12.1-26.7-27s12-27,26.7-27
	c14.8,0,26.7,12.1,26.7,27S193.4,190.3,178.6,190.3z M371,355.6h-45c0,0,0-55.7,0-76.7s-8-32.8-24.6-32.8
	c-18.1,0-27.6,12.2-27.6,32.8c0,22.5,0,76.7,0,76.7h-43.4V209.5h43.4v19.7c0,0,13-24.1,44-24.1c31,0,53.2,18.9,53.2,58.1
	C371,302.2,371,355.6,371,355.6z"/>
</svg>
