<?xml version="1.0" encoding="utf-8"?>
<!-- Generator: Adobe Illustrator 17.1.0, SVG Export Plug-In . SVG Version: 6.00 Build 0)  -->
<!DOCTYPE svg PUBLIC "-//W3C//DTD SVG 1.1//EN" "http://www.w3.org/Graphics/SVG/1.1/DTD/svg11.dtd">
<svg version="1.1" id="Layer_1" xmlns="http://www.w3.org/2000/svg" xmlns:xlink="http://www.w3.org/1999/xlink" x="0px" y="0px"
	 viewBox="0 0 512 512" enable-background="new 0 0 512 512" xml:space="preserve">
<path id="github-2-circle-icon" fill="#EC7B5D" d="M167,311.3c0,0.7-0.8,1.2-1.7,1.2c-1,0-1.7-0.6-1.7-1.2c0-0.7,0.8-1.2,1.7-1.2
	C166.2,310,167,310.6,167,311.3z M169.4,314.1c-1.1,0-2,0.6-2,1.4c0,0.8,0.9,1.4,2,1.4c1.1,0,2-0.6,2-1.4
	C171.4,314.7,170.5,314.1,169.4,314.1z M179.2,323.6c-1.4,0-2.5,0.8-2.5,1.8c0,1,1.1,1.8,2.5,1.8c1.4,0,2.5-0.8,2.5-1.8
	C181.7,324.4,180.6,323.6,179.2,323.6z M156.8,304c-0.7,0-1.3,0.4-1.3,0.9c0,0.5,0.6,0.9,1.3,0.9s1.3-0.4,1.3-0.9
	C158.1,304.4,157.5,304,156.8,304z M161,306.7c-0.8,0-1.5,0.5-1.5,1.1c0,0.6,0.7,1.1,1.5,1.1c0.8,0,1.5-0.5,1.5-1.1
	C162.4,307.1,161.8,306.7,161,306.7z M173.9,318.8c-1.2,0-2.3,0.7-2.3,1.6c0,0.9,1,1.6,2.3,1.6s2.3-0.7,2.3-1.6
	C176.2,319.5,175.2,318.8,173.9,318.8z M462,256c0,113.8-92.2,206-206,206S50,369.8,50,256S142.2,50,256,50S462,142.2,462,256z
	 M355.9,266.9c0.6-1.4,1.2-2.7,1.7-4.2c16.1-1.3,32.7-1.2,49.4,0.5l0.3-2.8c-16.5-1.6-32.9-1.7-48.8-0.5c2.6-8.2,3.9-17.4,3.8-27.9
	c-0.2-22.3-7.6-39.7-19.3-54.1c2.2-13.6,0.6-27.1-3.7-40.7c-16.7,1.4-31.7,6.8-45.1,16.3c-25-5.1-50-5.4-75,0
	c-15.6-10.5-30.9-15.7-46-16.3c-4.5,15-5.2,29.7-1.4,44.2c-13.2,14-18.2,30.9-17.9,49.7c0.1,10.7,1.8,20.3,4.9,28.8
	c-15.7-1.2-31.8-1-48,0.6l0.3,2.8c16.5-1.6,32.9-1.7,48.9-0.5c0.6,1.4,1.2,2.8,1.8,4.2c-17.3-0.5-32.8,1-47.4,4.6l0.7,2.7
	c14.8-3.6,30.6-5.1,48.3-4.5c11.7,20.8,34.2,33,67,36.9c-7.6,6.2-11.7,13.5-12.8,21.7c0,0-3.4,0-17.4,0c-23.3,0-29.7-29.7-53.8-26.8
	c23.4,11.6,18.8,48.8,56.3,48.8c12.6,0,15.3,0,15.8,0v34.1c0.2,5.5-2.2,9.2-6.1,11.7c13.4,1.4,23.5-5.4,23.5-13.6c0-8.2,0-41,0-45
	s4.2-4.3,4.2-4.3v52.6c0.2,5.2-2.4,8.2-5.1,11c11.8,0.5,23-1.9,23.5-12c0,0,0-47.8,0-50.3c0-2.5,4.1-2.6,4.1,0c0,2.6,0,47.9,0,47.9
	c0.1,8.5,7.5,15.4,23,14.3c-4.2-3.3-5.4-6.7-5.4-11.6s0-52,0-52s4.3-0.2,4.3,4.3c0,4.5,0,36.2,0,43.8c0,9.8,11.7,13.8,25.1,13.4
	c-4.4-3.3-7.3-7.2-7.4-12.4v-52.7c-0.5-7.7-3.6-15.1-9.8-21.9c30-4.6,51.6-16.6,62.3-38c17.7-0.6,33.6,0.9,48.5,4.5l0.7-2.7
	C389,267.9,373.4,266.4,355.9,266.9z M213.7,331.1c-1.5,0-2.8,0.9-2.8,2s1.2,2,2.8,2c1.5,0,2.8-0.9,2.8-2S215.3,331.1,213.7,331.1z
	 M204.5,331c-1.5,0-2.8,0.9-2.8,2c0,1.1,1.2,2,2.8,2c1.5,0,2.8-0.9,2.8-2C207.3,331.8,206.1,331,204.5,331z M195.2,330.7
	c-1.5,0-2.8,0.9-2.8,2c0,1.1,1.2,2,2.8,2c1.5,0,2.8-0.9,2.8-2C198,331.5,196.7,330.7,195.2,330.7z M186.3,328c-1.5,0-2.8,0.9-2.8,2
	c0,1.1,1.2,2,2.8,2c1.5,0,2.8-0.9,2.8-2C189.1,328.9,187.9,328,186.3,328z"/>
</svg>
